{
    "KPlugin": {
        "Authors": [
            {
                "Email": "stephane@mankowski.fr",
                "Name": "Stephane MANKOWSKI,miraks",
                "Name[ca@valencia]": "Stephane MANKOWSKI,miraks",
                "Name[ca]": "Stephane MANKOWSKI,miraks",
                "Name[en_GB]": "Stephane MANKOWSKI,miraks",
                "Name[es]": "Stephane MANKOWSKI,miraks",
                "Name[fi]": "Stephane MANKOWSKI,miraks",
                "Name[fr]": "Stephane MANKOWSKI, miraks",
                "Name[ia]": "Stephane MANKOWSKI,miraks",
                "Name[it]": "Stephane MANKOWSKI,miraks",
                "Name[ka]": "Stephane MANKOWSKI,miraks",
                "Name[nl]": "Stephane MANKOWSKI,miraks",
                "Name[pt]": "Stephane MANKOWSKI,miraks",
                "Name[ru]": "Stephane MANKOWSKI,miraks",
                "Name[sl]": "Stephane MANKOWSKI,miraks",
                "Name[sv]": "Stephane MANKOWSKI,miraks",
                "Name[tr]": "Stephane MANKOWSKI,miraks",
                "Name[uk]": "Stephane MANKOWSKI,miraks",
                "Name[x-test]": "xxStephane MANKOWSKI,miraksxx"
            }
        ],
        "Category": "Plugins",
        "Description": "A plugin for bookmarks",
        "Description[ca@valencia]": "Un connector de punts",
        "Description[ca]": "Un connector de punts",
        "Description[en_GB]": "A plugin for bookmarks",
        "Description[es]": "Complemento para marcadores",
        "Description[fi]": "Kirjanmerkkiliitännäinen",
        "Description[fr]": "Un module externe pour les signets",
        "Description[ia]": "Un plugin per marcatores de libro",
        "Description[it]": "Un'estensione per i segnalibri",
        "Description[ka]": "სანიშნების დამატება",
        "Description[nl]": "Een plugin voor bladwijzers",
        "Description[pt]": "Um 'plugin' para favoritos",
        "Description[ru]": "Модуль закладок",
        "Description[sl]": "Vtičnik za oznake",
        "Description[sv]": "Ett insticksprogram för bokmärken",
        "Description[tr]": "Yer imleri için bir eklenti",
        "Description[uk]": "Додаток для роботи з закладками",
        "Description[x-test]": "xxA plugin for bookmarksxx",
        "EnabledByDefault": true,
        "Icon": "quickopen",
        "Id": "skg_bookmark",
        "License": "GPL",
        "Name": "Bookmark plugin",
        "Name[bs]": "Dodatak za markere",
        "Name[ca@valencia]": "Connector de punts",
        "Name[ca]": "Connector de punts",
        "Name[cs]": "Modul pro záložky",
        "Name[da]": "Bogmærke-plugin",
        "Name[de]": "Lesezeichen-Modul",
        "Name[el]": "Bookmark plugin",
        "Name[en_GB]": "Bookmark plugin",
        "Name[es]": "Complemento de marcadores",
        "Name[et]": "Järjehoidjaplugin",
        "Name[fi]": "Kirjanmerkkiliitännäinen",
        "Name[fr]": "Moteur externe de signets",
        "Name[gl]": "Complemento de marcadores",
        "Name[hu]": "Könyvjelző bővítmény",
        "Name[it]": "Estensione per segnalibri",
        "Name[ka]": "სანიშნე მოდული",
        "Name[lt]": "Žymelių papildinys",
        "Name[nb]": "Bokmerkemodul",
        "Name[nds]": "Leestekenmoduul",
        "Name[nl]": "Plugin voor bladwijzer",
        "Name[pl]": "Wtyczka zakładek",
        "Name[pt]": "'Plugin' de favorito",
        "Name[pt_BR]": "Plugin de favoritos",
        "Name[ru]": "Модуль закладок",
        "Name[sk]": "Plugin záložiek",
        "Name[sl]": "Vtičnik zaznamka",
        "Name[sv]": "Bokmärkesinsticksprogram",
        "Name[tr]": "Yer imi eklentisi",
        "Name[uk]": "Додаток закладок",
        "Name[x-test]": "xxBookmark pluginxx",
        "Name[zh_CN]": "书签插件",
        "Name[zh_TW]": "書籤外掛程式",
        "ServiceTypes": [
            "SKG GUI/Plugin"
        ],
        "Version": "1.0",
        "Website": "https://skrooge.org/"
    },
    "X-Krunner-ID": "Bookmark plugin"
}
